<?xml version="1.0" encoding="UTF-8"?>
<kml xmlns="http://www.opengis.net/kml/2.2">
  <Placemark>
	  <name>Placemark with 2 Points</name>
	   <MultiGeometry>
    <Point>
          <coordinates>
            -77.05668055019126,38.87154239798456,100 
          </coordinates>
  </Point>
    <Point>
          <coordinates>
            -77.05668055019126,38.87157
          </coordinates>
  </Point>
  </MultiGeometry>
  </Placemark>
</kml>
